-------------------------------------------------------------------------------
Test set: com.silverrailtech.myapp.AppTest
-------------------------------------------------------------------------------
Tests run: 1, Failures: 0, Errors: 0, Skipped: 0, Time elapsed: 0.006 sec
